{
  "name": "johnCarterCV",
  "title": "John Carter de Marte",
  "description": "<p>Sistema compatible con John Carter de Marte 2d20</p> <p>Requisitos mínimos: Sandbox System Builder 0.3.9</p>",
  "version": "1.0.0",
  "minimumCoreVersion": "0.0.0",
  "compatibleCoreVersion": "1.0.0",
  "scripts": [],
  "esmodules": [],
  "styles": [],
  "packs": [],
  "languages": [],
  "authors": [
    "José Manuel Palacios Rodrigo (SrPanda)"
  ],
  "keywords": [],
  "socket": false,
  "url": "https://gitlab.com/jmpalacios/john-carter-sandbox-foundry-vtt",
  "manifest": "https://gitlab.com/jmpalacios/john-carter-sandbox-foundry-vtt/-/raw/master/world.json",
  "download": "https://gitlab.com/jmpalacios/john-carter-sandbox-foundry-vtt/-/archive/master/john-carter-sandbox-foundry-vtt-master.zip",
  "license": "",
  "readme": "",
  "bugs": "",
  "changelog": "",
  "background": "",
  "system": "sandbox",
  "coreVersion": "0.6.6",
  "systemVersion": "0.3.9",
  "nextSession": "",
  "availability": 0,
  "unavailable": false,
  "id": "johnCarterCV"
}